{
  "albums": {
    "href": "https://api.spotify.com/v1/browse/new-releases?country=SE&locale=*&offset=2&limit=5",
    "items": [
      {
        "album_type": "single",
        "artists": [
          {
            "external_urls": {
              "spotify": "https://open.spotify.com/artist/0rTh1tAdrEbdKZBTiiAQSo"
            },
            "href": "https://api.spotify.com/v1/artists/0rTh1tAdrEbdKZBTiiAQSo",
            "id": "0rTh1tAdrEbdKZBTiiAQSo",
            "name": "Mochakk",
            "type": "artist",
            "uri": "spotify:artist:0rTh1tAdrEbdKZBTiiAQSo"
          }
        ],
        "available_markets": [
          "AR",
          "AU",
          "AT",
          "BE",
          "BO",
          "BR",
          "BG",
          "CA",
          "CL",
          "CO",
          "CR",
          "CY",
          "CZ",
          "DK",
          "DO",
          "DE",
          "EC",
          "EE",
          "SV",
          "FI",
          "FR",
          "GR",
          "GT",
          "HN",
          "HK",
          "HU",
          "IS",
          "IE",
          "IT",
          "LV",
          "LT",
          "LU",
          "MY",
          "MT",
          "MX",
          "NL",
          "NZ",
          "NI",
          "NO",
          "PA",
          "PY",
          "PE",
          "PH",
          "PL",
          "PT",
          "SG",
          "SK",
          "ES",
          "SE",
          "CH",
          "TW",
          "TR",
          "UY",
          "US",
          "GB",
          "AD",
          "LI",
          "MC",
          "ID",
          "JP",
          "TH",
          "VN",
          "RO",
          "IL",
          "ZA",
          "SA",
          "AE",
          "BH",
          "QA",
          "OM",
          "KW",
          "EG",
          "MA",
          "DZ",
          "TN",
          "LB",
          "JO",
          "PS",
          "IN",
          "BY",
          "KZ",
          "MD",
          "UA",
          "AL",
          "BA",
          "HR",
          "ME",
          "MK",
          "RS",
          "SI",
          "KR",
          "BD",
          "PK",
          "LK",
          "GH",
          "KE",
          "NG",
          "TZ",
          "UG",
          "AG",
          "AM",
          "BS",
          "BB",
          "BZ",
          "BT",
          "BW",
          "BF",
          "CV",
          "CW",
          "DM",
          "FJ",
          "GM",
          "GE",
          "GD",
          "GW",
          "GY",
          "HT",
          "JM",
          "KI",
          "LS",
          "LR",
          "MW",
          "MV",
          "ML",
          "MH",
          "FM",
          "NA",
          "NR",
          "NE",
          "PW",
          "PG",
          "WS",
          "SM",
          "ST",
          "SN",
          "SC",
          "SL",
          "SB",
          "KN",
          "LC",
          "VC",
          "SR",
          "TL",
          "TO",
          "TT",
          "TV",
          "VU",
          "AZ",
          "BN",
          "BI",
          "KH",
          "CM",
          "TD",
          "KM",
          "GQ",
          "SZ",
          "GA",
          "GN",
          "KG",
          "LA",
          "MO",
          "MR",
          "MN",
          "NP",
          "RW",
          "TG",
          "UZ",
          "ZW",
          "BJ",
          "MG",
          "MU",
          "MZ",
          "AO",
          "CI",
          "DJ",
          "ZM",
          "CD",
          "CG",
          "IQ",
          "LY",
          "TJ",
          "VE",
          "ET",
          "XK"
        ],
        "external_urls": {
          "spotify": "https://open.spotify.com/album/4Kka250AUtEvx1XUuoNHfZ"
        },
        "href": "https://api.spotify.com/v1/albums/4Kka250AUtEvx1XUuoNHfZ",
        "id": "4Kka250AUtEvx1XUuoNHfZ",
        "images": [
          {
            "height": 640,
            "url": "https://i.scdn.co/image/ab67616d0000b27378ebac70714895c4f8ffaeb7",
            "width": 640
          },
          {
            "height": 300,
            "url": "https://i.scdn.co/image/ab67616d00001e0278ebac70714895c4f8ffaeb7",
            "width": 300
          },
          {
            "height": 64,
            "url": "https://i.scdn.co/image/ab67616d0000485178ebac70714895c4f8ffaeb7",
            "width": 64
          }
        ],
        "name": "Jealous",
        "release_date": "2023-08-25",
        "release_date_precision": "day",
        "total_tracks": 1,
        "type": "album",
        "uri": "spotify:album:4Kka250AUtEvx1XUuoNHfZ"
      },
      {
        "album_type": "single",
        "artists": [
          {
            "external_urls": {
              "spotify": "https://open.spotify.com/artist/6DgP9otnZw5z6daOntINxp"
            },
            "href": "https://api.spotify.com/v1/artists/6DgP9otnZw5z6daOntINxp",
            "id": "6DgP9otnZw5z6daOntINxp",
            "name": "Joel Corry",
            "type": "artist",
            "uri": "spotify:artist:6DgP9otnZw5z6daOntINxp"
          },
          {
            "external_urls": {
              "spotify": "https://open.spotify.com/artist/1yqxFtPHKcGcv6SXZNdyT9"
            },
            "href": "https://api.spotify.com/v1/artists/1yqxFtPHKcGcv6SXZNdyT9",
            "id": "1yqxFtPHKcGcv6SXZNdyT9",
            "name": "MK",
            "type": "artist",
            "uri": "spotify:artist:1yqxFtPHKcGcv6SXZNdyT9"
          },
          {
            "external_urls": {
              "spotify": "https://open.spotify.com/artist/5CCwRZC6euC8Odo6y9X8jr"
            },
            "href": "https://api.spotify.com/v1/artists/5CCwRZC6euC8Odo6y9X8jr",
            "id": "5CCwRZC6euC8Odo6y9X8jr",
            "name": "Rita Ora",
            "type": "artist",
            "uri": "spotify:artist:5CCwRZC6euC8Odo6y9X8jr"
          }
        ],
        "available_markets": [
          "AR",
          "AU",
          "AT",
          "BE",
          "BO",
          "BR",
          "BG",
          "CA",
          "CL",
          "CO",
          "CR",
          "CY",
          "CZ",
          "DK",
          "DO",
          "DE",
          "EC",
          "EE",
          "SV",
          "FI",
          "FR",
          "GR",
          "GT",
          "HN",
          "HK",
          "HU",
          "IS",
          "IE",
          "IT",
          "LV",
          "LT",
          "LU",
          "MY",
          "MT",
          "MX",
          "NL",
          "NZ",
          "NI",
          "NO",
          "PA",
          "PY",
          "PE",
          "PH",
          "PL",
          "PT",
          "SG",
          "SK",
          "ES",
          "SE",
          "CH",
          "TW",
          "TR",
          "UY",
          "US",
          "GB",
          "AD",
          "LI",
          "MC",
          "ID",
          "JP",
          "TH",
          "VN",
          "RO",
          "IL",
          "ZA",
          "SA",
          "AE",
          "BH",
          "QA",
          "OM",
          "KW",
          "EG",
          "MA",
          "DZ",
          "TN",
          "LB",
          "JO",
          "PS",
          "IN",
          "KZ",
          "MD",
          "UA",
          "AL",
          "BA",
          "HR",
          "ME",
          "MK",
          "RS",
          "SI",
          "KR",
          "BD",
          "PK",
          "LK",
          "GH",
          "KE",
          "NG",
          "TZ",
          "UG",
          "AG",
          "AM",
          "BS",
          "BB",
          "BZ",
          "BT",
          "BW",
          "BF",
          "CV",
          "CW",
          "DM",
          "FJ",
          "GM",
          "GE",
          "GD",
          "GW",
          "GY",
          "HT",
          "JM",
          "KI",
          "LS",
          "LR",
          "MW",
          "MV",
          "ML",
          "MH",
          "FM",
          "NA",
          "NR",
          "NE",
          "PW",
          "PG",
          "WS",
          "SM",
          "ST",
          "SN",
          "SC",
          "SL",
          "SB",
          "KN",
          "LC",
          "VC",
          "SR",
          "TL",
          "TO",
          "TT",
          "TV",
          "VU",
          "AZ",
          "BN",
          "BI",
          "KH",
          "CM",
          "TD",
          "KM",
          "GQ",
          "SZ",
          "GA",
          "GN",
          "KG",
          "LA",
          "MO",
          "MR",
          "MN",
          "NP",
          "RW",
          "TG",
          "UZ",
          "ZW",
          "BJ",
          "MG",
          "MU",
          "MZ",
          "AO",
          "CI",
          "DJ",
          "ZM",
          "CD",
          "CG",
          "IQ",
          "LY",
          "TJ",
          "VE",
          "ET",
          "XK"
        ],
        "external_urls": {
          "spotify": "https://open.spotify.com/album/2OjEzu9OvZLeGOJnAOxphI"
        },
        "href": "https://api.spotify.com/v1/albums/2OjEzu9OvZLeGOJnAOxphI",
        "id": "2OjEzu9OvZLeGOJnAOxphI",
        "images": [
          {
            "height": 640,
            "url": "https://i.scdn.co/image/ab67616d0000b273a03dc4c9f744dcf8c7c292f6",
            "width": 640
          },
          {
            "height": 300,
            "url": "https://i.scdn.co/image/ab67616d00001e02a03dc4c9f744dcf8c7c292f6",
            "width": 300
          },
          {
            "height": 64,
            "url": "https://i.scdn.co/image/ab67616d00004851a03dc4c9f744dcf8c7c292f6",
            "width": 64
          }
        ],
        "name": "Drinkin'",
        "release_date": "2023-08-25",
        "release_date_precision": "day",
        "total_tracks": 1,
        "type": "album",
        "uri": "spotify:album:2OjEzu9OvZLeGOJnAOxphI"
      },
      {
        "album_type": "single",
        "artists": [
          {
            "external_urls": {
              "spotify": "https://open.spotify.com/artist/4juMqlCDk4p6TrM7JXfSw2"
            },
            "href": "https://api.spotify.com/v1/artists/4juMqlCDk4p6TrM7JXfSw2",
            "id": "4juMqlCDk4p6TrM7JXfSw2",
            "name": "Robin Kadir",
            "type": "artist",
            "uri": "spotify:artist:4juMqlCDk4p6TrM7JXfSw2"
          },
          {
            "external_urls": {
              "spotify": "https://open.spotify.com/artist/2r9JAY6ISvp0VvZsT6cBJo"
            },
            "href": "https://api.spotify.com/v1/artists/2r9JAY6ISvp0VvZsT6cBJo",
            "id": "2r9JAY6ISvp0VvZsT6cBJo",
            "name": "Shiro",
            "type": "artist",
            "uri": "spotify:artist:2r9JAY6ISvp0VvZsT6cBJo"
          }
        ],
        "available_markets": [
          "AR",
          "AU",
          "AT",
          "BE",
          "BO",
          "BR",
          "BG",
          "CA",
          "CL",
          "CO",
          "CR",
          "CY",
          "CZ",
          "DK",
          "DO",
          "DE",
          "EC",
          "EE",
          "SV",
          "FI",
          "FR",
          "GR",
          "GT",
          "HN",
          "HK",
          "HU",
          "IS",
          "IE",
          "IT",
          "LV",
          "LT",
          "LU",
          "MY",
          "MT",
          "MX",
          "NL",
          "NZ",
          "NI",
          "NO",
          "PA",
          "PY",
          "PE",
          "PH",
          "PL",
          "PT",
          "SG",
          "SK",
          "ES",
          "SE",
          "CH",
          "TW",
          "TR",
          "UY",
          "US",
          "GB",
          "AD",
          "LI",
          "MC",
          "ID",
          "JP",
          "TH",
          "VN",
          "RO",
          "IL",
          "ZA",
          "SA",
          "AE",
          "BH",
          "QA",
          "OM",
          "KW",
          "EG",
          "MA",
          "DZ",
          "TN",
          "LB",
          "JO",
          "PS",
          "IN",
          "KZ",
          "MD",
          "UA",
          "AL",
          "BA",
          "HR",
          "ME",
          "MK",
          "RS",
          "SI",
          "KR",
          "BD",
          "PK",
          "LK",
          "GH",
          "KE",
          "NG",
          "TZ",
          "UG",
          "AG",
          "AM",
          "BS",
          "BB",
          "BZ",
          "BT",
          "BW",
          "BF",
          "CV",
          "CW",
          "DM",
          "FJ",
          "GM",
          "GE",
          "GD",
          "GW",
          "GY",
          "HT",
          "JM",
          "KI",
          "LS",
          "LR",
          "MW",
          "MV",
          "ML",
          "MH",
          "FM",
          "NA",
          "NR",
          "NE",
          "PW",
          "PG",
          "WS",
          "SM",
          "ST",
          "SN",
          "SC",
          "SL",
          "SB",
          "KN",
          "LC",
          "VC",
          "SR",
          "TL",
          "TO",
          "TT",
          "TV",
          "VU",
          "AZ",
          "BN",
          "BI",
          "KH",
          "CM",
          "TD",
          "KM",
          "GQ",
          "SZ",
          "GA",
          "GN",
          "KG",
          "LA",
          "MO",
          "MR",
          "MN",
          "NP",
          "RW",
          "TG",
          "UZ",
          "ZW",
          "BJ",
          "MG",
          "MU",
          "MZ",
          "AO",
          "CI",
          "DJ",
          "ZM",
          "CD",
          "CG",
          "IQ",
          "LY",
          "TJ",
          "VE",
          "ET",
          "XK"
        ],
        "external_urls": {
          "spotify": "https://open.spotify.com/album/45x0RStfiSluKzjg2PJw4D"
        },
        "href": "https://api.spotify.com/v1/albums/45x0RStfiSluKzjg2PJw4D",
        "id": "45x0RStfiSluKzjg2PJw4D",
        "images": [
          {
            "height": 640,
            "url": "https://i.scdn.co/image/ab67616d0000b27366d1bffbd0764a636d378fd0",
            "width": 640
          },
          {
            "height": 300,
            "url": "https://i.scdn.co/image/ab67616d00001e0266d1bffbd0764a636d378fd0",
            "width": 300
          },
          {
            "height": 64,
            "url": "https://i.scdn.co/image/ab67616d0000485166d1bffbd0764a636d378fd0",
            "width": 64
          }
        ],
        "name": "Lover & Protector (feat. Shiro)",
        "release_date": "2023-08-25",
        "release_date_precision": "day",
        "total_tracks": 1,
        "type": "album",
        "uri": "spotify:album:45x0RStfiSluKzjg2PJw4D"
      },
      {
        "album_type": "single",
        "artists": [
          {
            "external_urls": {
              "spotify": "https://open.spotify.com/artist/67lytN32YpUxiSeWlKfHJ3"
            },
            "href": "https://api.spotify.com/v1/artists/67lytN32YpUxiSeWlKfHJ3",
            "id": "67lytN32YpUxiSeWlKfHJ3",
            "name": "Yung Lean",
            "type": "artist",
            "uri": "spotify:artist:67lytN32YpUxiSeWlKfHJ3"
          }
        ],
        "available_markets": [
          "AR",
          "AU",
          "AT",
          "BE",
          "BO",
          "BR",
          "BG",
          "CA",
          "CL",
          "CO",
          "CR",
          "CY",
          "CZ",
          "DK",
          "DO",
          "DE",
          "EC",
          "EE",
          "SV",
          "FI",
          "FR",
          "GR",
          "GT",
          "HN",
          "HK",
          "HU",
          "IS",
          "IE",
          "IT",
          "LV",
          "LT",
          "LU",
          "MY",
          "MT",
          "MX",
          "NL",
          "NZ",
          "NI",
          "NO",
          "PA",
          "PY",
          "PE",
          "PH",
          "PL",
          "PT",
          "SG",
          "SK",
          "ES",
          "SE",
          "CH",
          "TW",
          "TR",
          "UY",
          "US",
          "GB",
          "AD",
          "LI",
          "MC",
          "ID",
          "JP",
          "TH",
          "VN",
          "RO",
          "IL",
          "ZA",
          "SA",
          "AE",
          "BH",
          "QA",
          "OM",
          "KW",
          "EG",
          "MA",
          "DZ",
          "TN",
          "LB",
          "JO",
          "PS",
          "IN",
          "BY",
          "KZ",
          "MD",
          "UA",
          "AL",
          "BA",
          "HR",
          "ME",
          "MK",
          "RS",
          "SI",
          "KR",
          "BD",
          "PK",
          "LK",
          "GH",
          "KE",
          "NG",
          "TZ",
          "UG",
          "AG",
          "AM",
          "BS",
          "BB",
          "BZ",
          "BT",
          "BW",
          "BF",
          "CV",
          "CW",
          "DM",
          "FJ",
          "GM",
          "GE",
          "GD",
          "GW",
          "GY",
          "HT",
          "JM",
          "KI",
          "LS",
          "LR",
          "MW",
          "MV",
          "ML",
          "MH",
          "FM",
          "NA",
          "NR",
          "NE",
          "PW",
          "PG",
          "WS",
          "SM",
          "ST",
          "SN",
          "SC",
          "SL",
          "SB",
          "KN",
          "LC",
          "VC",
          "SR",
          "TL",
          "TO",
          "TT",
          "TV",
          "VU",
          "AZ",
          "BN",
          "BI",
          "KH",
          "CM",
          "TD",
          "KM",
          "GQ",
          "SZ",
          "GA",
          "GN",
          "KG",
          "LA",
          "MO",
          "MR",
          "MN",
          "NP",
          "RW",
          "TG",
          "UZ",
          "ZW",
          "BJ",
          "MG",
          "MU",
          "MZ",
          "AO",
          "CI",
          "DJ",
          "ZM",
          "CD",
          "CG",
          "IQ",
          "LY",
          "TJ",
          "VE",
          "ET",
          "XK"
        ],
        "external_urls": {
          "spotify": "https://open.spotify.com/album/0ExGbjosILPh9lf3dCIM9z"
        },
        "href": "https://api.spotify.com/v1/albums/0ExGbjosILPh9lf3dCIM9z",
        "id": "0ExGbjosILPh9lf3dCIM9z",
        "images": [
          {
            "height": 640,
            "url": "https://i.scdn.co/image/ab67616d0000b2733e5ce452c2a5cf8aa457f383",
            "width": 640
          },
          {
            "height": 300,
            "url": "https://i.scdn.co/image/ab67616d00001e023e5ce452c2a5cf8aa457f383",
            "width": 300
          },
          {
            "height": 64,
            "url": "https://i.scdn.co/image/ab67616d000048513e5ce452c2a5cf8aa457f383",
            "width": 64
          }
        ],
        "name": "Victorious//Bullets",
        "release_date": "2023-08-25",
        "release_date_precision": "day",
        "total_tracks": 2,
        "type": "album",
        "uri": "spotify:album:0ExGbjosILPh9lf3dCIM9z"
      },
      {
        "album_type": "single",
        "artists": [
          {
            "external_urls": {
              "spotify": "https://open.spotify.com/artist/08jywfUS0hp8XYlYs0cvz8"
            },
            "href": "https://api.spotify.com/v1/artists/08jywfUS0hp8XYlYs0cvz8",
            "id": "08jywfUS0hp8XYlYs0cvz8",
            "name": "Rampa",
            "type": "artist",
            "uri": "spotify:artist:08jywfUS0hp8XYlYs0cvz8"
          },
          {
            "external_urls": {
              "spotify": "https://open.spotify.com/artist/3c1sTwL4HuWkrciiKHpnmx"
            },
            "href": "https://api.spotify.com/v1/artists/3c1sTwL4HuWkrciiKHpnmx",
            "id": "3c1sTwL4HuWkrciiKHpnmx",
            "name": "Sparrow & Barbossa",
            "type": "artist",
            "uri": "spotify:artist:3c1sTwL4HuWkrciiKHpnmx"
          },
          {
            "external_urls": {
              "spotify": "https://open.spotify.com/artist/26WKgv73kRHD0gEDKD1i8j"
            },
            "href": "https://api.spotify.com/v1/artists/26WKgv73kRHD0gEDKD1i8j",
            "id": "26WKgv73kRHD0gEDKD1i8j",
            "name": "Keinemusik",
            "type": "artist",
            "uri": "spotify:artist:26WKgv73kRHD0gEDKD1i8j"
          }
        ],
        "available_markets": [
          "AR",
          "AU",
          "AT",
          "BE",
          "BO",
          "BR",
          "BG",
          "CA",
          "CL",
          "CO",
          "CR",
          "CY",
          "CZ",
          "DK",
          "DO",
          "DE",
          "EC",
          "EE",
          "SV",
          "FI",
          "FR",
          "GR",
          "GT",
          "HN",
          "HK",
          "HU",
          "IS",
          "IE",
          "IT",
          "LV",
          "LT",
          "LU",
          "MY",
          "MT",
          "MX",
          "NL",
          "NZ",
          "NI",
          "NO",
          "PA",
          "PY",
          "PE",
          "PH",
          "PL",
          "PT",
          "SG",
          "SK",
          "ES",
          "SE",
          "CH",
          "TW",
          "TR",
          "UY",
          "US",
          "GB",
          "AD",
          "LI",
          "MC",
          "ID",
          "JP",
          "TH",
          "VN",
          "RO",
          "IL",
          "ZA",
          "SA",
          "AE",
          "BH",
          "QA",
          "OM",
          "KW",
          "EG",
          "MA",
          "DZ",
          "TN",
          "LB",
          "JO",
          "PS",
          "IN",
          "BY",
          "KZ",
          "MD",
          "UA",
          "AL",
          "BA",
          "HR",
          "ME",
          "MK",
          "RS",
          "SI",
          "KR",
          "BD",
          "PK",
          "LK",
          "GH",
          "KE",
          "NG",
          "TZ",
          "UG",
          "AG",
          "AM",
          "BS",
          "BB",
          "BZ",
          "BT",
          "BW",
          "BF",
          "CV",
          "CW",
          "DM",
          "FJ",
          "GM",
          "GE",
          "GD",
          "GW",
          "GY",
          "HT",
          "JM",
          "KI",
          "LS",
          "LR",
          "MW",
          "MV",
          "ML",
          "MH",
          "FM",
          "NA",
          "NR",
          "NE",
          "PW",
          "PG",
          "WS",
          "SM",
          "ST",
          "SN",
          "SC",
          "SL",
          "SB",
          "KN",
          "LC",
          "VC",
          "SR",
          "TL",
          "TO",
          "TT",
          "TV",
          "VU",
          "AZ",
          "BN",
          "BI",
          "KH",
          "CM",
          "TD",
          "KM",
          "GQ",
          "SZ",
          "GA",
          "GN",
          "KG",
          "LA",
          "MO",
          "MR",
          "MN",
          "NP",
          "RW",
          "TG",
          "UZ",
          "ZW",
          "BJ",
          "MG",
          "MU",
          "MZ",
          "AO",
          "CI",
          "DJ",
          "ZM",
          "CD",
          "CG",
          "IQ",
          "LY",
          "TJ",
          "VE",
          "ET",
          "XK"
        ],
        "external_urls": {
          "spotify": "https://open.spotify.com/album/2EmksNEKe2Fxg5xqIaJ8ai"
        },
        "href": "https://api.spotify.com/v1/albums/2EmksNEKe2Fxg5xqIaJ8ai",
        "id": "2EmksNEKe2Fxg5xqIaJ8ai",
        "images": [
          {
            "height": 640,
            "url": "https://i.scdn.co/image/ab67616d0000b273144521b28b985be2649f3e51",
            "width": 640
          },
          {
            "height": 300,
            "url": "https://i.scdn.co/image/ab67616d00001e02144521b28b985be2649f3e51",
            "width": 300
          },
          {
            "height": 64,
            "url": "https://i.scdn.co/image/ab67616d00004851144521b28b985be2649f3e51",
            "width": 64
          }
        ],
        "name": "Champion",
        "release_date": "2023-08-25",
        "release_date_precision": "day",
        "total_tracks": 1,
        "type": "album",
        "uri": "spotify:album:2EmksNEKe2Fxg5xqIaJ8ai"
      }
    ],
    "limit": 5,
    "next": "https://api.spotify.com/v1/browse/new-releases?country=SE&locale=*&offset=7&limit=5",
    "offset": 2,
    "previous": "https://api.spotify.com/v1/browse/new-releases?country=SE&locale=*&offset=0&limit=5",
    "total": 100
  }
}